cevodata construction • cevodata
…
Now, in all other steps the filtered SNVs will be used by
default.

Getting data

To get the SNV data from the object, one can use the
SNVs() function. It returns the default SNV tibble.

SNVs(cd)
#> # A tibble: 15,072 × 11
#>    sample_id chrom   pos gene_symbol ref   alt   ref_reads alt_reads impact
#>  * <chr>     <chr> <int> <chr>       <chr> <chr>     <dbl>     <dbl> <chr> 
#>  1 Sample 1  chr1      1 NA          NA    NA           25        29 NA    
#>  2 Sample 1  chr1      2 NA          NA    NA           22        19 NA    
#>  3 Sample 1  chr1      3 NA          NA    NA           21        20 NA    
#>  4 Sample 1  chr1      4 NA          NA    NA           34         2 NA    
#>  5 Sample 1  chr1      5 NA          NA    NA           62         1 NA    
#>  6 Sample 1  chr1      7 NA          NA    NA           33        34 NA    
#>  7 Sample 1  chr1      8 NA          NA    NA           31        30 NA    
#>  8 Sample 1  chr1      9 NA          NA    NA           25        17 NA    
#>  9 Sample 1  chr1     10 NA          NA    NA           41        31 NA    
#> 10 Sample 1  chr1     11 NA          NA    NA           42         1 NA    
#> # ℹ 15,062 more rows
#> # ℹ 2 more variables: VAF <dbl>, DP <int>

Alternatively, other SNVs data can be requested using the
name argument

SNVs(cd, name = "all_Mutect_snvs")
#> # A tibble: 16,000 × 11
#>    sample_id chrom   pos gene_symbol ref   alt   ref_reads alt_reads impact
#>  * <chr>     <chr> <int> <chr>       <chr> <chr>     <dbl>     <dbl> <chr> 
#>  1 Sample 1  chr1      1 NA          NA    NA           25        29 NA    
#>  2 Sample 1  chr1      2 NA          NA    NA           22        19 NA    
#>  3 Sample 1  chr1      3 NA          NA    NA           21        20 NA    
#>  4 Sample 1  chr1      4 NA          NA    NA           34         2 NA    
#>  5 Sample 1  chr1      5 NA          NA    NA           62         1 NA    
#>  6 Sample 1  chr1      6 NA          NA    NA            4         3 NA    
#>  7 Sample 1  chr1      7 NA          NA    NA           33        34 NA    
#>  8 Sample 1  chr1      8 NA          NA    NA           31        30 NA    
#>  9 Sample 1  chr1      9 NA          NA    NA           25        17 NA    
#> 10 Sample 1  chr1     10 NA          NA    NA           41        31 NA    
#> # ℹ 15,990 more rows
#> # ℹ 2 more variables: VAF <dbl>, DP <int>
…
add_stats() is called internally by
calc_SFS(), calc_cumulative_tails(), and
calc_Mf_1f() functions. These statistics can be accessed
using the get_stats() function, although more convenient
helpers were implemented.

cd <- calc_SFS(cd)
# equal to get_stats(cd, "SFS"), but will also calculate the SFS 
# if the SFS slot is empty
get_SFS(cd) 
#> # A tibble: 233 × 5
#>    sample_id f_interval            f     y y_scaled
#>    <chr>     <chr>             <dbl> <int>    <dbl>
#>  1 Sample 1  (-0.0192,0]     -0.0096     0   0     
#>  2 Sample 1  (0,0.0192]       0.0096    94   0.0249
#>  3 Sample 1  (0.0192,0.0385]  0.0288   469   0.124 
#>  4 Sample 1  (0.0385,0.0577]  0.0481   353   0.0933
#>  5 Sample 1  (0.0577,0.0769]  0.0673   163   0.0431
#>  6 Sample 1  (0.0769,0.0962]  0.0865   120   0.0317
#>  7 Sample 1  (0.0962,0.115]   0.106     63   0.0167
#>  8 Sample 1  (0.115,0.135]    0.125     38   0.01  
#>  9 Sample 1  (0.135,0.154]    0.145     27   0.0071
#> 10 Sample 1  (0.154,0.173]    0.163     19   0.005 
#> # ℹ 223 more rows
…
